<?xml version="1.0" standalone="no"?>
<svg width="90" height="90" version="1.1" xmlns="http://www.w3.org/2000/svg" viewBox="0 0 90 90">
	<g>
		<title>Navicon</title>
		<rect x="10" y="20" width="70" height="10" rx="3" ry="3" />
		<rect x="10" y="40" width="70" height="10" rx="3" ry="3" />
		<rect x="10" y="60" width="70" height="10" rx="3" ry="3" />
	</g>
</svg>